{
  "port": 8080,
  "passwordType": "sha256",
  "detectorMergePamRegionTriggers": true,
  "videosDir": "videos",
  "streamDir": "streams",
  "binDir": "fileBin",
  "addStorage": [],
  "databaseType": "sqlite3",
  "db": {
    "host": "127.0.0.1",
    "user": "majesticflame",
    "password": "",
    "database": "ccio",
    "port":3306
  },
  "mail":{
    "service": "gmail",
    "auth": {
        "user": "your_email@gmail.com",
        "pass": "your_password_or_app_specific_password"
        }
  },
  "cron":{
      "key":"change_this_to_something_very_random__just_anything_other_than_this"
  },
  "pluginKeys":{}
}
